Reviews,CurrysReply,Number of Stars,Location,Category,Sentiment1,Sentiment2,Sentiment3
﻿ '' Would given 5 stars," but I was mislead initially online into believing that the Folkestone Branch had the Laptop I required (Acer 11"" Touch Chromebook). But I had to go to Ashford to get it!!""""ould have given 5 stars"," but I was mislead initially onlin""",[],4,[],Customer Service,0
I electric oven installed rental property almost month ago . I supposed receive electric safety certificate oven installed . I chased 3 times I still waiting . Why difficult ? I paid . There ? It legal requirement . I spent 50 minutes phone chasing yet . Very disappointing .,[],1,[],Customer Service,0,0,1
first Bridge freeze delivered paying Î£35 door reversal laid pavement doors reversed . After four hours recommended switched . frost free time freeze full ice . also interior light work . After expense several lengthy phone calls I offered replacement . I kept old freeze aware would 4 hours twitching food safe . however second freeze arrived ( time agreed friend drive miles ) delivery men paid reverse doors put candles . Twitched four hours . time frozen meat freeze length time . Another lengthy call arrange someone put right . fridge freeze switched laid back reverse doors . another 4 twitching . By contents freeze freeze . Hurry offered Î£31 loss food . His offering Î£30 inconvenience caused . They give . There around Î£60 food put . Mainly meat chicken local butcher . His want counting loss individual meals pre cooked frozen convenience ... ... .. Very poor disgusting sales ... .AVOID,[],1,[],Delivery,0,0,0
"I never problems issues carry PCWorld I using long time , I always treated way I treat , respect , long ago I one branches customer rude aggressive I felt sorry member staff , I think people remember choice limited due many companies close .","Hi Raymond, thanks for the feedback. - DaveB
  ]",5,"Ayr, GB,
  ]",Customer Service,1,1,0
Good price delivered promised .,"Hi Brian, thanks for the feedback - DaveB
  ]",5,[],Delivery,1,1,1
Recently ordered Hurry 's product I wanted best price - arrived recent storm - greatly appreciated .Great communication bad weather keep informed hold-up 's .I would definitely use Hurry 's .,"Hi Michael, thanks for taking the time to leave us some feedback. - DaveB
  ]",5,"Manchester, GB,
  ]",Delivery,1,1,1
] '' '' Deborah," I do apologise for the delays to your """,1,[],Delivery,0,0,2
"Have received excellent service twice last six months Hurry.Price competitive.I quite surprised delivery worst weather Britain endured recently , think would able deliver , although later planned I impressed . Delivery crew courteous helpful put dwyer shed , took away packing pleasant way despite weather conditions credit company .","Hi Rose, thank you for taking the time to leave us this review. - DaveB
  ]",5,[],Delivery,1,1,1
Never issue ordering always delivered time,"Hi Niya, thanks for the feedback. - DaveB
  ]",5,[],Delivery,1,1,0
"I bought present granddaughter I live Tenerife , even though snow really bad weather birthday present delivered time Thank ! Hurry pp world ! ! _™•‘_™•","Hi Diane, thanks for taking the time to leave a review. - DaveB
  ]",5,[],Delivery,1,1,0
"By delivery last week canceled due poor weather , I woke morning ( day rearranged ) find snow , I honestly thought I going wait cooper another week ! But lee drew braved weather made ! and—It express dreadful I ! Finally cooper ! Thank u guns really appreciated !","Hi Rachel, thank you for taking the time to leave some feedback. - DaveB
  ]",5,"Paisley, GB,
  ]",Delivery,1,1,1
I Must quick note every one avoid Hurry costs . Ought Pad 6 years ago got whatever happens cover paying Î£9.50 month last six years . Never made claim couple month ago dropped kitchen floor screen cracked . He sent repaired send letter back saying damage inconsistent happened would fix . I told appeal cancel payment would invalidity appeal . I appealed 2 months ago received nothing back I decided ring morning told sent letter month ago rejecting appeal yet taken money . To fair say damage inconsistent would never dropped pad kitchen floor . They scar . Its called whatever happens called whatever happens wont get fixed . To homework people see people claimed accidental damage get told damage inconsistent happened gets rejected . There article guardian 2012 also watchdog selling called good cover . Any way cost serves Î£200 month agreements families plus never buy another electrical item scatters long I live.They send reply look even gathered wont anything .,"Hi Gareth - thanks for your post.<br/><br/>I'm very sorry to hear of the disappointing experience you've encountered with your agreement.<br/><br/>I'd be happy to take a look into this further for you. In order for me to do so, could you please send me your full name, address and agreement details to; letusknow@teamknowhow.com quoting reference number CUR22338 in the subject line?<br/><br/>Thanks - Emily.
  ]",1,[],Customer Service,0,0,0
purchased kenwood washing machine reasonably prices ... delivery free time received message 4 hour window delivery want waiting day..the washing machine perfect works great would recommend carry appliances,"Thanks for the great feedback.<br/><br/>It's fabulous to hear that you're happy with the service you received.<br/><br/>Thanks - Emily.
  ]",5,[],Delivery,1,1,0
"of—Ve ordered purchased restore many things hurry—Is without much fuss . I recently ordered click & collect . After getting home , appeared faulty brighter one edge screen . I dreading process return exchange , call centre helpful sending return label email , I kept informed return process via email , I replacement item week later time perfect working order . His could quite easily poor experience n't . It comforting know decent afterward support I wouldn—It hesitate recommend hurry—Is others .","Hi Michael - thanks for your post.<br/><br/>it's fantastic to hear that you're happy with our service. We really appreciate you taking the time to share this with us.<br/><br/>Thanks - Emily.
  ]",5,[],Customer Service,1,1,1
"Our shop Silverlink Wallsend great staff know products well . Always come first electrical items . Not great deal camera staff Ergot bowing match better price . Enough said , another win Hurry .","Thanks for your wonderful feedback, David.<br/><br/>It's great to hear that you're happy with your experience.<br/><br/>Thanks - Emily.
  ]",5,[],Customer Service,1,1,1
"Please aware returning anything buy Hurry . You entitled return goods stated terms . I returned unopened item recently , horrible experience going . Only find today home address blacklisted 'm able place order . I tried place order twice cancel straight away , telling items available fact warehouse stock positive , checked one live web chat staff . You 're right books long keep shut n't return anything back , even right . I 've called explanation rudeness staff unbelievable . They wo n't admit blacklisted address simple reason returned something I want anymore , done respecting terms conditions . They keep saying automatic in-house security checks failed . Asking means said n't know , advising purchase Hurry anymore order ever get ! I honestly completely shocked response I anything everything takes name shame !","Hi Micsunel - thanks for your post.<br/><br/>I'm sorry to hear of your disappointment with our ordering system.<br/><br/>So that we can look into this further, could you please send me your full name, address and any order details you have along with a copy of your original post to; letusknow@teamknowhow.com quoting reference number CUR22334 in the subject line?<br/><br/>Thanks - Emily.
  ]",1,[],Customer Service,0,0,1
"Wanted new , I found Hurry world sale . Staff attentive approach see help , I given plenty time research I wanted without passed much . A staff member also brought car . Pleased purchase .","We're over the moon to hear that you're happy with our services, Mark.<br/><br/>Thanks for the great review.<br/><br/>Emily.
  ]",4,[],Customer Service,1,1,1
Washing machine wanted great price great delivery free next day . Was really pleased got washing machine quickly old one broken completely ! ! Went online evening got purchase next day fantastic delighted came quick _™…—,"Hi Noreen - thanks for your post.<br/><br/>We're really pleased to hear that all went well with your order.<br/><br/>Thanks - Emily.
  ]",5,[],Delivery,1,1,1
I purchased lawton store paid everything said would set everything next day 2 HOURS later gets phone call saying lawton ready collection world best made happy would recommend pp world anyone great staff great products see future,"ThatŠ—Ès brilliant to hear, thanks for the great feedback. Š—– Jack
  ]",5,[],Customer Service,1,1,1
Purchased washing machine great price fast delivery drivers good really pleased purchase,"ThatŠ—Ès brilliant to hear, thanks for the great feedback. Š—– Jack
  ]",5,[],Delivery,1,1,1
"Very helpful assistant , push . Knowledgeable pleasant n't rush explained option . Able answer questions .","ThatŠ—Ès brilliant to hear, thanks for the great feedback. Š—– Jack
  ]",5,[],Customer Service,1,1,1
"Hurry friendly helpful staff , great prices","ThatŠ—Ès brilliant to hear, thanks for the great feedback. Š—– Jack
  ]",5,[],Customer Service,1,1,1
Excellent product great price . Extremely pleased installation service .,"ThatŠ—Ès brilliant to hear, thanks for the great feedback. Š—– Jack
  ]",5,[],Delivery,1,1,1
on—It fooled offers . There suppose 10 % printer today 1/3 ink bought printer . I went store explained could one two offers couldn—It ! They ended giving 10 % worse deal 1/3 ink . It needs clearer webster .,"Hi Jackie, I'm sorry if that wasn't advertised. Some offers can not be used with others unfortunately. I'm sorry for the disappointment this has caused you. - Jack
  ]",2,[],Customer Service,0,2,1
Stem arrived time fast staff respectful helpful would hesitate business Hurry .,"ThatŠ—Ès brilliant to hear, thanks for the great feedback. Š—– Jack
  ]",4,[],Delivery,1,1,1
helpful staff ( midweek visit ) good section products,"ThatŠ—Ès brilliant to hear, thanks for the great feedback. Š—– Jack
  ]",5,[],Customer Service,1,1,1
Laptop repairGreat service - clear expect.Fixed issue - problemsHappy recommend,"ThatŠ—Ès brilliant to hear, thanks for the great feedback. Š—– Jack
  ]",5,[],Customer Service,1,1,1
"I purchased washed Hurry I astounded well I treated Hurry . They good , even I decided I n't like machine . Excellent service beginning end . I n't expect Hurry . I buy .","ThatŠ—Ès brilliant to hear, thanks for the great feedback. Š—– Jack
  ]",5,"Bradford, GB,
  ]",Customer Service,1,1,1
Purchased Washing Machine . Arrived promptly installed delivery people promptly . The staff friendly professional .,"Hi, great news. Pleased all went well - Tony
  ]",5,[],Delivery,1,1,1
Kept regularly informed delay delivery due recent bad weather i.e . snow area . The microwave securely held depot safe deliver . I happy purchase delivery driver courteous . Based I recommend future purchases .,"Hi, pleased to hear it Š—– Tony
  ]",5,[],Delivery,1,1,1
Ought x box one sons birthday birthday fast delivery store message arrived collect excellent value shops 230 x box 1 game Hurry got x box 3 games x box live 3 months 238 would defiantly recommend,"Hi, great news. Pleased all went well - Tony
  ]",5,[],Customer Service,1,1,1
"Ought dishwasher Hurry 's , Porch unit . Said fitting appliance . The appliance fitted KnowHow team left . Went test unit . To water . check stop cock , switched . Twitched water sprayed connection , face , counter cupboards . Turned water find unit connected HOT WATER pipe without rashers . Should connected COLD water pipe . Rushed Screwfix get appropriate rashers fitted.Great , turned water dishwasher ran . , n't think bad news ended . Time unit drain . A flood water floor , kitchen carpet times soaking wet . Twitched unit post haste , , course flood noticed real FLOOD water . Everything undercounter cupboard soaking wet . The floor times swimming water . Checked see water escaping . The connection waste pipe fitted without rashers . Off Screwfix returned required rashers.Turned cold water tap , oh gash , water flooding carpet times . By I little angry.The waste pipe sink removed replaced without rashers . Off ScrewFix purchase , THIRD time , set rashers waste pipe.Of NOT BAD ENOUGH called filters refused connect appliance regardless I paid connection fee UNLESS I paid sum CASH , pocket . I Î£20 I guess missing rashers form revenge.Disgusting workmanship . In untrained monkey Corner jungle would done better job totally buggering everything , , smile.Hurry 's SHAME . A disgusting display shod filters.SHAME offering refund connection fee money NOT showing make payment.SHAME accepting responsibility kitchen tile flooding.SHAME making visit shop 3 times get sales representative talk arrange fitting unit . Sitting unit , joke ! ! ! ! Well , I sorry I purchased fridge/freeze dishwasher . first case delivery persons REFUSED take waste packing although contract . SHAME YOU ONCE AGAIN - YOU THIEVING SODS","Hi ,sorry to hear of the issues. Please send your post to LetUsKnow@TeamKnowhow.Com. Please also include your address and order reference number so I can take a look. I apologise for the inconvenience involved Š—– Tony
  ]",1,[],Customer Service,0,0,0
"I found Hurry competitive price also reliable delivering time . I bought high value items I reassured issue I get sorted . Also , I like idea collect , circumstances , store . I buy quite lot equipment work used lot suppliers , offering great prices sadly old saying 'if looks good true , probably ' . By criticism availability staff stores overall knowledge . West homework first , ...","Hi, I am pleased that most aspects went well. Sorry for any knowledge gaps in store - Tony
  ]",5,[],Customer Service,0,2,1
"Right mates , changed blooooooody slogan made angry . Like 'we start ' good like 'we help get right ' saying 're wrong ? ! ! ! mean seriously would change well respected slogan . husband worshipped carry feel like seeing .","I'm really sorry to hear we let you down Zack, so this can be looked into further and fed back, could you please send us an email to letusknow@teamknowhow.com quoting ref: CUR22320 including your full name, address and any references you have, along with a copy of your post. Š—– Jack
  ]",1,[],Customer Service,0,0,1
"Received good customer service , staff friendly , knowledgable helped us decide important choice lawton . Shout Media helped us , thank .","Hi, pleased to hear it Š—– Tony
  ]",4,[],Customer Service,1,1,1
"Ought Hurry several times found easy , quick , reliable good value money .","Hi, great news. Pleased all went well - Tony
  ]",5,[],Customer Service,1,1,1
"done research buying new lawton work . I done little bit research different models I needed work ( power point presentations , word documents small data files ) I gone store met friendly knowledgeable member staff . n't face extremely pleasant deal . time looking get I managed settle new Sac book . happy product moon high grade service I dealt .","Hi, thanks for the nice review Š—– Tony
  ]",5,[],Customer Service,1,1,1
"he—Ve local hurry—Is get . It first none approached us , asked help made mind , got passed colleague order get finance . Well , unfortunately guy didn—It seem much happy assist us middle checking process disappeared . Luckily shop assistant realised needed help sorted us quickly efficiently . He sympathetic took perfectly . 0-star Bony , 5-stars James !","Hi Manuel, sorry to hear of the issues. Please send your post to LetUsKnow@TeamKnowhow.Com. Please include details of which store so I can notify the manager. I apologise for the inconvenience involved Š—– Tony
  ]",3,[],Customer Service,0,0,1
friendly staff good deal,"Hi, thanks for the nice review Š—– Tony
  ]",5,[],Customer Service,1,1,1
"Always buy electrical items hurry—Is ( kettle , master , captors , fridge freeze etc ) choice prices excellent best thing extended cover - repair replace . By lawton died gave brand new one , speck I Now Now insurance . Staff helpful .","Hi, great news. Pleased all went well - Tony
  ]",5,[],Customer Service,1,1,1
Friendly staff excellent service,"Hi, pleased to hear it Š—– Tony
  ]",5,[],Customer Service,1,1,1
"Shopping on-line ever easy , great selection Coffee machines choose from..Choosing Coffee machine simple arranged next day delivery payment.Delivery arrived requested Coffee round supplied running times clean fresh up.Coffee fantastic easy make machine .","Hi, great news. Pleased all went well - Tony
  ]",5,[],Customer Service,1,1,1
Good selection product friendly knowledgeable staff,"Thanks for your wonderful feedback, Kathryn.<br/><br/>We're really pleased to hear that you're happy with our service.<br/><br/>Thanks - Emily.
  ]",5,[],Customer Service,1,1,1
Vice big space shop friendly staffs.Thanks .,"Thanks for the great feedback, Sheikh.<br/><br/>It's great to hear you're happy with our service.<br/><br/>Thanks - Emily.
  ]",4,[],Customer Service,1,1,1
He bought built oven carry—Is unfortunately got home bit big rang shop immediately person spoke said way could return unwrapped I rang customer services brilliant said course return oven put store ( silverlink ) I spoke floor manager Have couldn—It helpful 10/10 got oven exchanged problem,"Hi Elaine - thanks for your post.<br/><br/>I'm so sorry to hear of the disappointing experience you had originally with the return of your item.<br/><br/>I am pleased to hear that this has since been resolved.<br/><br/>Thanks - Emily.
  ]",3,[],Customer Service,1,1,0
Very good customer service logistics,"Thanks for your wonderful feedback.<br/><br/><br/>Thanks - Emily.
  ]",4,"Telford, GB,
  ]",Customer Service,1,1,1
"I tried Ergot first , big mistake , finally came senses bought World , great service delivery .","Hi Domenico - thanks for your post.<br/><br/>We're so pleased that you're happy with our service.<br/><br/>Thanks - Emily.
  ]",5,[],Customer Service,1,1,0
Have always received excellent service hurry—Is . within last month purchased microwave oven . The first microwave I purchased difficult understand I allowed return exchange simple item even though I opened box . The assistant 32 Lane carry—Is Peter helpful I feel I mention name . I need bit help keep days 85 I certainly get hurry—Is . even far carrying items car .,"Hi Mr Fleming - thanks for your post.<br/><br/>We're over the moon to hear that we've been able to support you with your recent purchases.<br/><br/>I'm so pleased that my colleagues in store went above and beyond to assist you and ensure you're happy with your purchases.<br/><br/>Thanks - Emily.
  ]",5,[],Customer Service,1,1,1
"Pleasure shopping store , great team .","Hi Stephen - thanks for your wonderful review.<br/><br/>We love to hear when our customer's are happy with the service we provide.<br/><br/>Thanks - Emily.
  ]",5,[],Customer Service,1,1,2
"Ought integrated fridge freeze I idiot.Happily accepted return even though I 'd unvexed , got non-integrated fridge freeze delivered next day ! Great customer service .","Hi Sam - thanks for your post.<br/><br/>We're really happy to hear that you're pleased with the service we provided. <br/><br/>I hope all is well with your new purchase.<br/><br/>Thanks - Emily.
  ]",5,[],Delivery,1,1,1
"In absolutely fantastic radio ( 's small & compact ) , GREAT sound ! It 's easy tuning & channels clear , also works extremely wellwithout aerial ! !","Hi Georgette - we're over the moon to hear that you're happy with your recent purchase.<br/><br/>Thanks for taking the time to share this with us.<br/><br/>Thanks - Emily.
  ]",5,[],Customer Service,1,1,1
Recently bought Hurry Wakefield store puckered buying 3 Sandstorm HDMI tables ... Said done deal gave 3 Î£90 said 'd throw copy picture perfect free ... ! Having done reading tables total rip I 've actually charged picture perfect - complete outright dishonesty ... ! Is member Her Majesty Constabulary dishonest wrong person ... !,"Hi Darren - thanks for your post.<br/><br/>I'm sorry to hear that you're unhappy with your recent purchase from our Wakefield store. Have you since returned to raise this with the salesperson or management team? <br/><br/>I'd like to look into this further to see how we can help. In order for us to do so, could you please send me your full name, address and copy of your receipt along with the details of what happened to; letusknow@teamknowhow.com quoting reference number CUR22296 in the subject line?<br/><br/>Thanks - Emily.
  ]",1,[],Customer Service,0,0,0
Nothing praise professional helpful assistance choosing lawton ... ... .and store people sneer ! Not .,"Hi Simon - thanks for your fantastic feedback.<br/><br/>It's wonderful to learn that you're happy with our service and that my colleagues in store were helpful.<br/><br/>Thanks for taking the time out to share this with us.<br/><br/>- Emily.
  ]",5,[],Customer Service,1,1,1
Very disappointed I ordered new oven parents delivered fitted today . one filters pulled sliding kitchen door runners brand new oven one burned dignity engineer see fix problem next Wednesday,"Hi Sandra - thanks for your post.<br/><br/>Please accept my sincere apologies for the inconvenience caused to your parents during their recent experience with our delivery service.<br/><br/>If you do have any outstanding queries regarding this, please send them to me along with the full name, address and order details of the purchaser to; letusknow@teamknowhow.com quoting reference number CUR22294 in the subject line.<br/><br/>Thanks - Emily.
  ]",1,[],Delivery,0,0,1
"Fantastic company experience customer adviser ( Phil I think name ) Kidderminster store turned completely negative experience past lawton computer new one.I went faulty lawton I n't feel suitable repair needed new lawton day . I sure I heart set specific Well convertible I went store , told specific model stock proceeded spend long amount time customer adviser looking alternatives ( That man patience saint ! ) , based explored needs wants offered alternative products.After explaining alternative benefits ( bigger screen , keyboard power ) , I eventually settled Novo Sofa could n't happier ! Especially considering I got fantastic price managed pull strings superior get feeble.Being student value money quality important things considered I asked make final decision.Overall fantastic experience would happily buy !","Hi Jacob - thanks for your post.<br/><br/>It's fantastic to hear that you're happy with our services. It certainly sounds like Phil went above and beyond to ensure that all went well with your shopping journey.<br/><br/>We really hope you're enjoying your new purchase and we look forward to welcoming you again in the near future.<br/><br/>Thanks - Emily.
  ]",5,[],Customer Service,1,1,1
"I visited carry—Is merry hill today looking I pad/tablet son.Customer service none extent , I ended getting help another customer good knowledge decent purchase , waiting someone serve him.There staff around wasn—It busy seemed interested helping I finally got assistance nothing stock manager made feel products expensive purchase , would know income beyond ! Ended leaving wasted 3/4 hour going another shop helped exactly I wanted In half time ! Will never returning that—Is sure ! Disgusting","Hi Sophie - thanks for your post.<br/><br/>I'm so sorry to hear of the disappointing experience you had in our Merry Hill Store, this certainly doesn't sound like the usual high level of service that we pride ourselves on providing.<br/><br/>Please be assured that this has been fed back for internal review of service. We truly value customer feedback as this enables us to identify areas of our business which need addressing, which in turn allows us to continually improve our services.<br/><br/>Thanks - Emily.
  ]",1,[],Customer Service,0,0,1
"Hurry world good range bands products , good value , excellent delivery service . Thoroughly recommended","Hi Sandie - thanks for your post. <br/><br/>It's great to hear that you're happy with our service.<br/><br/>Thanks - Emily.
  ]",5,[],Delivery,1,1,1
I found exact product I wanted good price . The process take long picking item Checkout .,"We're over the moon to learn that you're happy with our services, Elizabeth.<br/><br/>Thank you for taking the time to let us know.<br/><br/>Thanks - Emily.
  ]",5,"Stevenage, GB,
  ]",Customer Service,1,1,1
"Last free delivery - ask dishwasher breaks . Telephone customer service rep n't helpful , though polite friendly . He made choice based comparison tool , reviews deal offered . Delivered said would delivery communications fine .","Hi Kleggy - thanks for your post.<br/><br/>I'm pleased to hear that all went well with your recent order. We really appreciate you taking the time to share your experience with us.<br/><br/>Thanks - Emily.
  ]",4,[],Delivery,1,1,1
"Tablet private use . Whilst product stock , I able buy protective case keyboard I wanted . Also purchased screen protector later online . Was offered ( pressurised ) buy McAfee cloud storage . Will go back store return I 've decided I really want this.Although sales person come across warm enthusiastic , knowledgeable , courteous answered questions patience good advice.All good experience I return next purchase future .","Hi, sorry for any issues. If you need us in future please email LetUsKnow@TeamKnowhow.Com with details and your phone number and we will call you - Tony
  ]",4,"Stafford, GB,
  ]",Customer Service,1,1,1
Friendly information staff recommend 100 %,"Hi, I am pleased to hear that Š—– Tony
  ]",5,[],Customer Service,1,1,2
"He bought smart set Hurry 's shop Royal Leamington Pa extremely satisfied purchase . He seen many models available webster came store friendly staff member advised us best valued products . In top 3-year guarantee additional discount ! Excellent experience , definitely suggested everyone .","Hi, I am pleased to hear that Š—– Tony
  ]",5,[],Customer Service,1,1,1
"hurry—Is york . Nobody service desk . Fig queue doors freezing . Lots assistants standing around . For sales top , money .","Hi , sorry to hear of the issues. Please send your post to LetUsKnow@TeamKnowhow.Com. Please include details of how we can help. I apologise for the inconvenience involved Š—– Tony
  ]",1,[],Customer Service,0,0,0
"I always purchase electrical goods Hurry , never reason complain yet carry I always done .","Hi, I am pleased to hear that Š—– Tony
  ]",5,[],Customer Service,1,1,0
"Old washing machine stopped working - found one Hurry , delivered free 2 days - old one removed / new one installed Hurry Î£25 - took old one away Î£20 .","Hi, I am pleased to hear that Š—– Tony
  ]",5,[],Delivery,1,1,1
Great experience ! Thank !,"Hi, I am pleased to hear that Š—– Tony
  ]",5,[],Customer Service,1,1,2
Ought Samsung washing machine Hurry 's October days started vibrated move around kitchen . I tried adjust level ( per manual ) got worse . When I rang Hurry I automatically directed Samsung support line . They sent engineer claimed flooring - solid wooden floor top concrete . They said directly concrete ! There nothing manual say - I told Hurry 's I bought . To I contracted Hurry . Because outside 90 day refund period Samsung said machine functional claimed nothing could . Yes," there is you can replace the washing machine"" I said - but they refused and wanted nothing more to do with me. They were quite happy to take my Î£400 and leave me with a washing machine that's unusable because it moves around the kitchen. I will NEVER buy from Currys again and I advise you not to either""""ought a Samsung washing machine from Curry's in October and after few days started to vibrate and move around the kitchen. I tried to adjust the level (as per the manual) but it just got worse. When I rang Currys I was automatically directed to Samsung support line. They sent out an engineer but claimed it w""","Hi , sorry to hear of the issues. Please send your post to LetUsKnow@TeamKnowhow.Com. Please also include your address and order reference number so I can take a look. I apologise for the inconvenience involved Š—– Tony
  ]",1,[],Customer Service,0,1
Having spent hours local carry—Is store last Sunday choosing paid Î£750 promised delivery 7 7 Tuesday business disappointment never arrived I rang carry—Is night I got home waiting 12 hours I got guy explained situation told guy st store forgot order us completely forgot process order I explained poor service asked refund took till ne day speaking 4 people carry—Is clue talking one girl I spoke even arguing phone saying I would go store get refund I proved wrong could refund phone explain time time eventually told receive refund find gave us credit ! To phone calls time I ! Eventually I assured money put back card pew wasted hours offer goodwill gesture come carry—Is big company training courses customer service ? Thank wasting time happy accept payment wait till try get back Nightmare experience business customer,"Hi , sorry to hear of the issues. Please send your post to LetUsKnow@TeamKnowhow.Com. Please also include your address and order reference number so I can take a look. I apologise for the inconvenience involved Š—– Tony
  ]",1,[],Customer Service,0,0,1
Brilliant experience-purchased tumble dwyer Friday lunchtime delivered Saturday lunchtime Our old dwyer removed new one place within 5 minutes- two delivery drivers could helpful pleasant,"Hi, thatŠ—Ès great to hear Š—– Tony
  ]",5,[],Delivery,1,1,1
"Ordered Indesit washed dwyer ( IWDC6125 ) 07 Web phone To receipt supplied email Confirmation - company NOT communicate via email - phoneWasher ruined 2 pairs Of black trousers - appears single wash temperatureWhen opening door following wash / dry cycle overwhelmed steam - Glad I glasses . In wishes fabric faded / badly ceased.Requested refund - customer service failed accurately document anythingAdvised would need send engineer check - well product Is fit purpose - worse still , potentially dangerousMachine finally taken 27 Web - called yesterday - could confirm refund issued.Now Left Î£370 worse plus Î£40 new work trousers.Reported credit card company confirmation refund replies email customer service . dismal customer service Hurry Indesit ( ak Hotpoint / Whirlpool )","Hi , sorry to hear of the issues. Please send your post to LetUsKnow@TeamKnowhow.Com. Please also include your address and order reference number so I can take a look. I apologise for the inconvenience involved Š—– Tony
  ]",1,[],Customer Service,0,0,0
"I visited store purchase photo scanned . The model I wished stock , ordered following day I notified available collect store . The transaction went smoothly , salesman helpful pleasant deal . All , I happy experience .","Hi, thanks for the nice review - Tony
  ]",4,[],Customer Service,1,1,1
Although item stock day I went store I ordered line store bandit arrived next day promised,"Hi, I am pleased to hear that Š—– Tony
  ]",4,[],Delivery,1,1,2
"Great webster , fast free delivery , driver contracted gave delivery time , excellent value money fridge freeze . Very pleased Hurry 's service .","Great to learn Peter &amp; thanks for taking the time to post the review. - Jay
  ]",5,[],Delivery,1,1,1
Great efficient service store . Easy FREE delivery ... ..the driver even offered install washed n't paid service unpacked took rubbish away .,"Hi Rachel, our thanks for the great review. - Jay
  ]",5,[],Delivery,1,1,1
"Absolutely pitiful customer service . I informed delivery date changed due adverse weather conditions . The result meant I throw whole fridge worth food fridge gone temporary solutions coming end . To make matters worse , I contracted customer services rude helpful . I informed delivery would take extra two weeks compensation offered inconvenience . I subsequently canceled order buying Hurry .","Hi Max, thanks for the review. So sorry to learn you were effected by the bad weather and especially for the lack of contact - not what should have happened. So I can trace this could you drop us an email to letusknow@teamknowhow.com quoting CUR22273<br/>along with the original order number and your address &amp; postcode? - Jay
  ]",1,[],CUstomer Service,0,0,0
"Last use webster , fast delivery , excellent delivery persons rung gave exact time delivery never complained get freeze downstairs basement , value money fridge freeze . Very satisfied Hurry","Hi. I'm glad to hear that you are happy with our service. Thank you for your comments. - Carrie.
  ]",5,[],Delivery,1,1,1
"Excellent service knowledgeable , friendly staff .","Fantastic to hear Jonathan. We appreciate your review. Thanks. Carrie.
  ]",5,[],Customer Service,1,1,1
"Useful comparison feature webster , helpful customer services department phone call away , prompt efficient delivery friendly competent delivery drivers . Would fault experience beginning end .","Great to hear Josie. Thanks for your feedback. - Carrie.
  ]",5,[],Customer Service,1,1,1
4 stars chop stars service ( Feet ),"Great to hear Povilas. Thank you for your comments. - Carrie.
  ]",4,[],Customer Service,1,2,2
"Incredible service Back Work Clinton Door branch . I wanted trade horrible dysfunctional Windows machine MacBook : two hundred pound trade offer . Unfortunately lawton failed working condition test . I allowed use store I-i totally reinstate Windows took hours I got lots help . ( I use Sac Windows ... ... . ) . Finally reinstate worked , lawton sailed test I walked shiny new Sac Î£200 . I think hurry—Is used waste space level service much better , push like used .","Fantastic to hear Henry. I've passed your comments to the Store Manager to ensure my colleagues receive your recognition. Thanks. Carrie.
  ]",5,[],Customer Service,1,1,1
I pleased sales lady Hurry 's Livingston helped decide washing machine buy sort delivery . The men delivered fitted machine also really good . first class treatment 3 people .,"Hi Mrs Duke. I am glad to hear that you are happy with the service received, both in store and regarding your delivery. We appreciate your feedback. Thanks. Carrie.
  ]",5,[],Customer Service,1,1,1
"Avoid trowbridge branch . I recently ordered I go collect 3 attempts kept screwing order . I waited week broadband fitted carry—Is ( responsible ) inform order canceled . Very upset internet , I revoked time virgin quicker fit time . Two weeks virgin canceled can—It fitted area , guess ... one told us havana brilliant ! ! ! ! Three weeks waiting literally nothing . Nothing clowns working .","Hi Matthew. I am sorry to hear of the issues following an order from our Trowbridge branch. So that we can look into this for you, can you please email a copy of your review, including your full name, address and contact number to LetUsKnow@TeamKnowhow.Com. Please quote reference CUR22266 in the subject of your email. Thanks. Carrie.
  ]",1,[],Customer Service,0,0,1
"Met business account holder without asking ! Ought Apple watch Hurry World superstore last minute birthday gift someone . When I got home , I realised set business account holder processes card payment purchase order fictitious business . When I noticed receipt , I wanted take product back , store closed , birthday gift give today ! Suffice say I livid speaking store manager open morning . I also pursuing directors ICO.Absolutely disgusted ! Is customer former employee , I assure I never dealings company .","Hi James. Can you please email a copy of your review, including your full name, address and contact number so that we can look into this for you? Our email address is LetUsKnow@TeamKnowhow.Com. Please quote reference CUR22265 in the subject of your email. Thanks. Carrie.
  ]",1,[],Customer Service,0,0,1
"Hurry / World great ... .but I high end Bony / Plural player , paid Î£45 , - extra installation ... ..was n't happy . The Knowhow guns ( x ) came set , n't know properly , missed equipment connections etc , went Hurry arranged another couple guns come next day rectify first visit 's blotched job . The second pair use either made worse . I 've asked Bony send guns set , 're coming tomorrow . Bony bit expensive , well worth extra payment . I wish I 'd gone Bony first place","Hi Stevan. I am sorry to hear of the issues regarding the installation of your TV. Can you please email a copy of your review, including your full name, address and contact number so we can look into this for you? Our email address is LetUsKnow@TeamKnowhow.Com. Please quote reference CUR22264 in the subject of your email. Thanks. Carrie.
  ]",1,[],Customer Service,0,0,1
"Was impressed recent purchase , ease ordering line , quick delivery","Great to hear Pat. Thank you for your review. - Carrie.
  ]",5,[],Delivery,1,1,1
"Of thinking buy old Went rd store . You must see sales man store name That . Besides , store got need . You gift buy technology store .","Fantastic to hear Abdel. We appreciate your comments. Thanks. Carrie.
  ]",5,[],Customer Service,1,1,1
Ordered washed dwyer said delivered tomorrow line paying . delivery date said 2 3 weeks . To phone ask told 's stock n't say line canceled order I wait 5 days money goes back card . But 's worth I never ordering Hurry,"Hi Yvonne. I am sorry to hear of the issues with your order. So that we can look into this for you, can you please email a copy of your review, including your full name, address and contact number to LetUsKnow@TeamKnowhow.Com? Please quote reference CUR22261 in the subject of your email. Thanks. Carrie.
  ]",1,[],Delivery,0,0,0
I found staff carry—Is Shropshire polite helpful .,"Great to hear Deb. Thanks for your review. - Carrie.
  ]",5,[],Customer Service,1,1,1
"By sum went Hurry , Lips Will , Basildon weeks ago , spur moment , thought might buy new small . After choosing Î£300 model went till pay , told block card Î£300 unusual amount . The offered cash told n't take cash . Apparently , alternative left pay via Hurry store card . Since purchase spur moment decision , point gave left store without wanted . I spoken Hurry seem justified salesperson would take Î£300 cash . I heard sales people earn commission encouraging customers sign card , surely would n't lie achieve ? ? ? ?","Hi Caroline. I am sorry to hear of the issues experienced by your mum in our Basildon branch. I have passed your comments to the Store Manager for internal review. Any training issues will be addressed as part of this process to prevent this from happening again. We do hope that you and your mum chose to shop with us again in the future, where I am certain that you will receive the high level of service we strive to provide to all of our customers. Thanks. Carrie.
  ]",1,[],Customer Service,0,0,1
"Purchased new printer + print cartridge online good discount could n't matched elsewhere . It ready collection local store ( Mansfield ) next day . In collection staff n't aware applicable discount easily resolved discount pointed applied without question . Staff friendly , hard sell 'extra ' , altogether much better experience I 've past Hurry 's - hard sell driven elsewhere previously based experience I 'd give another go .","Thanks for your feedback. It is always welcome as it is used to continually to improve the level of service offered. Thanks. Carrie.
  ]",4,[],Customer Service,1,1,1
"Am looking buy new kitchen appliances black washing machine , cooper , hood , splashback.I phone carry see could get discount lady spoke bit abrupt saying negotiate discount present Î£60 buying 2 appliances , knew nothing Î£60 deal time phone call , longer available.The made feel like trying get something nothing . Take note carry , buying J Lewis .Ve also read carry installation problems , 1 customer negative experience good .","Hi Tanky. I am sorry to hear of the poor service received. This is not indicative of the high level of service we strive to provide to all of our customers. Feedback is always welcome as we aim to continually to improve the level of service offered. We do hope that you will chose to shop with us in the future. Thanks. Carrie.
  ]",3,[],Customer Service,0,0,1
"Worcester Blackpole branch . Ask Aren want know white goods . Customer service , product knowledge , unapproachability efficiency I 'd rate 11 10 ! The product I wanted good , Samsung usually get right , competitive price 70 % I 've given 5 star rating Hurry Laura . Of Hurry 's staff like . Those I also contact helpful main contact Aren . Ask Hurry hang . The good .","Hi, thatŠ—Ès great to hear - Tony
  ]",5,[],Customer Service,1,1,1
"I 'm usually one purchasing 'Fig Us ' , certainly reviewing online , I felt I share service I recently got Hurry/PCWorld.A situation came work meaning needed , I mean NEEDED , fattest possible lawton available , hands next day . He ascertained said machine made company Called Later ( Most powerful lawton time writing ) , contracted directly . They could n't help , needed 8 days get machine us.I idea , Hurry/PCWorld happened top speck model 'in stock ' according site , upon calling , found true . I explained unless Monday absolute latest , point us ordering . It Thursday evening I called.Father promise , I put hold whilst sales person rang warehouse direct check fact stock , could personally send immediately . The warehouse confirmed could done , I ordered machine great cost.I arrived office sharp following day , find delivery guy standing , waiting note stated parcel HAD delivered today '' . About 10 minutes later I received email sales person", personally assuring me that it was out for delivery today. I was pleased to tell him it was already in my hands.I know that larger companies such as Currys/PCWorld are sometimes dinosaurs when it comes to rush jobs and customer service like this, but in this case they really saved us, big time," and for that praise is due.""""'m not usually one for purchasing off the 'Big Guys'", and certainly not for reviewing online, but I felt I should share the service I recently got from Currys/PCWorld.A situation came up at work meaning that we needed,1
Great service time.Ordered oven 2015 someone fit us . Order completed fearlessly.Ordered USB memory stick December 2017 service fruitless . The stick became faulty replaced rapidly ! Website easy use service great . Good communications via e-mail replacing USB stick . Would order Hurry 's 9/10 times 're little expensive competitors .,"Hi, I am very pleased to hear that - Tony
  ]",5,"Teesside, England., GB,
  ]",Customer Service,1,1,1
Staff know area work,"Hi, thanks for the positive review Š—– Tony
  ]",4,[],Customer Service,1,1,1
"I bought washing machine last month , it—Is complete pile _™ê© , countless phone calls & email I managed arrange exchange , call halfway today changing exchange date , another 3 phone calls today & give told take away & refund , terrible customer service , terrible delivery service , I never buy recommend Hurry anyone , 4 weeks brand new washing that—Is broken , ordering somewhere else , thank god !","Hi , sorry to hear of the issues. Please send your post to LetUsKnow@TeamKnowhow.Com with ref CUR 22251 in the subject line. Please also include your address and order reference number so I can take a look. I apologise for the inconvenience involved Š—– Tony
  ]",1,[],Customer Service,0,0,0
Value money good service .,"Hi, I am very pleased to hear that - Tony
  ]",5,[],Customer Service,1,1,1
